<?xml version="1.0" encoding="UTF-8" standalone="no"?>
<!-- Created with Inkscape (http://www.inkscape.org/) -->

<svg
   width="128mm"
   height="128mm"
   viewBox="0 0 128 128"
   version="1.1"
   id="svg1"
   xmlns="http://www.w3.org/2000/svg"
   xmlns:svg="http://www.w3.org/2000/svg">
  <defs
     id="defs1" />
  <g
     id="layer1">
    <path
       id="rect1"
       style="fill:#d1f0f6;stroke:#2ba3ba;stroke-width:6.07351"
       d="M 12,3.0367548 H 116 A 8.9632448,8.9632448 45 0 1 124.96324,12 l 0,104 A 8.9632437,8.9632437 135 0 1 116,124.96324 H 11.999998 A 8.9632437,8.9632437 45 0 1 3.0367548,116 V 12 A 8.9632448,8.9632448 135 0 1 12,3.0367548 Z" />
  </g>
</svg>
